<?xml version="1.0"?>
<svg xmlns="http://www.w3.org/2000/svg" xmlns:xlink="http://www.w3.org/1999/xlink" version="1.1" id="Layer_1" x="0px" y="0px" viewBox="0 0 496 496" style="enable-background:new 0 0 496 496;" xml:space="preserve" width="512px" height="512px" class=""><g><rect x="92" y="48" style="fill:#F1C40F" width="312" height="320" data-original="#FFA64D" class="" data-old_color="#FFA64D"/><g>
	<path style="fill:#FFFFFF" d="M92,0C65.528,0,44,21.528,44,48v400c0,26.472,21.528,48,48,48h360v-16c-17.648,0-32-14.352-32-32   s14.352-32,32-32v-8v-8V0H92z M416.256,480H92c-17.648,0-32-14.352-32-32s14.352-32,32-32h324.256   C408.64,424.496,404,435.72,404,448S408.64,471.504,416.256,480z M92,400c-12.304,0-23.496,4.688-32,12.32V48   c0-17.648,14.352-32,32-32h344v384H92z" data-original="#3F3A34" class="active-path" data-old_color="#FDFBF7"/>
	<rect x="76" y="440" style="fill:#FFFFFF" width="280" height="16" data-original="#3F3A34" class="active-path" data-old_color="#FDFBF7"/>
	<rect x="372" y="440" style="fill:#FFFFFF" width="16" height="16" data-original="#3F3A34" class="active-path" data-old_color="#FDFBF7"/>
	<path style="fill:#FFFFFF" d="M268.232,294.432C309.016,286.792,340,250.968,340,208s-30.984-78.792-71.768-86.432   C272.976,117.176,276,110.96,276,104c0-13.232-10.768-24-24-24s-24,10.768-24,24c0,6.96,3.024,13.176,7.768,17.568   C194.984,129.208,164,165.032,164,208s30.984,78.792,71.768,86.432C231.024,298.824,228,305.04,228,312c0,13.232,10.768,24,24,24   s24-10.768,24-24C276,305.04,272.976,298.824,268.232,294.432z M220,208c0-17.648,14.352-32,32-32s32,14.352,32,32   s-14.352,32-32,32S220,225.648,220,208z M257.136,160.288c-1.688-0.184-3.4-0.288-5.136-0.288s-3.448,0.104-5.136,0.288   l-0.088-0.024l5.224-8.72l5.232,8.712L257.136,160.288z M246.864,255.712c1.688,0.184,3.4,0.288,5.136,0.288   s3.448-0.104,5.136-0.288l0.088,0.024l-5.224,8.72l-5.232-8.712L246.864,255.712z M273.456,259.792l21.984,5.496   c-9.632,7.32-21.12,12.256-33.656,13.968L273.456,259.792z M291.912,247.92l-9.856-2.464l0.096-0.16   c2.624-2.128,5.024-4.52,7.152-7.152l0.152-0.088L291.912,247.92z M299.712,213.144c0.184-1.696,0.288-3.408,0.288-5.144   s-0.104-3.448-0.288-5.144l0.024-0.088l8.712,5.232l-8.712,5.232L299.712,213.144z M289.296,177.848   c-2.128-2.624-4.52-5.024-7.152-7.152l-0.096-0.16l9.856-2.464l-2.464,9.864L289.296,177.848z M273.456,156.208l-11.68-19.464   c12.536,1.712,24.032,6.648,33.656,13.968L273.456,156.208z M230.544,156.208l-21.984-5.496c9.632-7.32,21.12-12.256,33.656-13.968   L230.544,156.208z M212.088,168.08l9.856,2.464l-0.096,0.16c-2.624,2.128-5.024,4.52-7.152,7.152l-0.152,0.088L212.088,168.08z    M204.288,202.856C204.104,204.552,204,206.264,204,208s0.104,3.448,0.288,5.144l-0.024,0.088L195.552,208l8.712-5.232   L204.288,202.856z M214.704,238.152c2.128,2.624,4.52,5.024,7.152,7.152l0.096,0.16l-9.856,2.464l2.464-9.864L214.704,238.152z    M230.544,259.792l11.68,19.464c-12.536-1.712-24.032-6.648-33.656-13.968L230.544,259.792z M309.288,251.432l-5.496-21.976   l19.464-11.68C321.544,230.312,316.608,241.808,309.288,251.432z M323.256,198.224l-19.464-11.68l5.496-21.976   C316.608,174.192,321.544,185.688,323.256,198.224z M252,96c4.408,0,8,3.584,8,8s-3.592,8-8,8s-8-3.584-8-8S247.592,96,252,96z    M194.712,164.568l5.496,21.976l-19.464,11.68C182.456,185.688,187.392,174.192,194.712,164.568z M180.744,217.776l19.464,11.68   l-5.496,21.976C187.392,241.808,182.456,230.312,180.744,217.776z M252,320c-4.408,0-8-3.584-8-8s3.592-8,8-8c4.408,0,8,3.584,8,8   S256.408,320,252,320z" data-original="#3F3A34" class="active-path" data-old_color="#FDFBF7"/>
	<rect x="340" y="320" style="fill:#FFFFFF" width="16" height="16" data-original="#3F3A34" class="active-path" data-old_color="#FDFBF7"/>
	<rect x="292" y="320" style="fill:#FFFFFF" width="32" height="16" data-original="#3F3A34" class="active-path" data-old_color="#FDFBF7"/>
</g></g> </svg>
